<svg width="18" height="18" viewBox="0 0 18 18" fill="none" xmlns="http://www.w3.org/2000/svg">
<g id="Iconly/Light/Calendar">
<g id="Calendar">
<path id="Line_200" d="M2.31934 7.05383H15.6873" stroke="#EA2427" stroke-width="1.5" stroke-linecap="round" stroke-linejoin="round"/>
<path id="Line_201" d="M12.3312 9.98156H12.3382" stroke="#EA2427" stroke-width="1.5" stroke-linecap="round" stroke-linejoin="round"/>
<path id="Line_202" d="M9.00311 9.98156H9.01005" stroke="#EA2427" stroke-width="1.5" stroke-linecap="round" stroke-linejoin="round"/>
<path id="Line_203" d="M5.66912 9.98156H5.67607" stroke="#EA2427" stroke-width="1.5" stroke-linecap="round" stroke-linejoin="round"/>
<path id="Line_204" d="M12.3312 12.8976H12.3382" stroke="#EA2427" stroke-width="1.5" stroke-linecap="round" stroke-linejoin="round"/>
<path id="Line_205" d="M9.00311 12.8976H9.01005" stroke="#EA2427" stroke-width="1.5" stroke-linecap="round" stroke-linejoin="round"/>
<path id="Line_206" d="M5.66912 12.8976H5.67607" stroke="#EA2427" stroke-width="1.5" stroke-linecap="round" stroke-linejoin="round"/>
<path id="Line_207" d="M12.032 1.5V3.96809" stroke="#EA2427" stroke-width="1.5" stroke-linecap="round" stroke-linejoin="round"/>
<path id="Line_208" d="M5.97338 1.5V3.96809" stroke="#EA2427" stroke-width="1.5" stroke-linecap="round" stroke-linejoin="round"/>
<path id="Path" fill-rule="evenodd" clip-rule="evenodd" d="M12.1787 2.68359H5.82822C3.6257 2.68359 2.25 3.91054 2.25 6.16586V12.9531C2.25 15.2439 3.6257 16.4992 5.82822 16.4992H12.1718C14.3812 16.4992 15.75 15.2652 15.75 13.0098V6.16586C15.7569 3.91054 14.3882 2.68359 12.1787 2.68359Z" stroke="#EA2427" stroke-width="1.5" stroke-linecap="round" stroke-linejoin="round"/>
</g>
</g>
</svg>
