<svg width="24" height="24" viewBox="0 0 24 24" fill="none" xmlns="http://www.w3.org/2000/svg">
<path fill-rule="evenodd" clip-rule="evenodd" d="M19.0156 5.203C19.9428 6.59054 20.4376 8.22185 20.4376 9.89063C20.4376 12.1284 19.5487 14.2745 17.9663 15.8568C16.384 17.4392 14.2379 18.3281 12.0001 18.3281C10.3313 18.3281 8.70004 17.8333 7.3125 16.9062C5.92496 15.979 4.84351 14.6613 4.20489 13.1195C3.56628 11.5778 3.39919 9.88127 3.72475 8.24455C4.05031 6.60784 4.85391 5.10442 6.03391 3.92442C7.21392 2.74441 8.71734 1.94082 10.3541 1.61525C11.9908 1.28969 13.6873 1.45678 15.229 2.0954C16.7708 2.73401 18.0885 3.81546 19.0156 5.203ZM16.2189 12.8016L16.922 7.87969H16.9079C16.9211 7.75439 16.9004 7.62785 16.848 7.5133C16.7955 7.39875 16.7132 7.3004 16.6097 7.22854C16.5063 7.15667 16.3854 7.11393 16.2597 7.10479C16.134 7.09565 16.0082 7.12044 15.8954 7.17657L13.6384 8.30157L12.5767 6.7125C12.5124 6.61679 12.4255 6.53837 12.3237 6.48414C12.222 6.42992 12.1084 6.40156 11.9931 6.40156C11.8778 6.40156 11.7642 6.42992 11.6625 6.48414C11.5607 6.53837 11.4738 6.61679 11.4095 6.7125L10.3478 8.30157L8.09075 7.17657C7.97795 7.12044 7.85215 7.09565 7.72649 7.10479C7.60083 7.11393 7.47994 7.15667 7.37645 7.22854C7.27297 7.3004 7.19069 7.39875 7.13823 7.5133C7.08577 7.62785 7.06506 7.75439 7.07825 7.87969L7.78138 12.8016C7.80525 12.9705 7.88975 13.125 8.01912 13.2363C8.14848 13.3475 8.31389 13.4079 8.4845 13.4063H15.5158C15.6864 13.4079 15.8518 13.3475 15.9811 13.2363C16.1105 13.125 16.195 12.9705 16.2189 12.8016ZM1.65719 17.8643L3.96344 15.5581C5.23751 17.3571 7.07633 18.6787 9.18766 19.3127L6.17125 22.3432C6.10555 22.4084 6.02764 22.4599 5.94197 22.4949C5.8563 22.5299 5.76457 22.5477 5.67203 22.5471C5.60345 22.5488 5.53493 22.5417 5.46813 22.526C5.34829 22.4942 5.23899 22.4313 5.15132 22.3436C5.06365 22.2559 5.00072 22.1466 4.96891 22.0268L4.315 19.7065L1.9736 19.0667C1.85376 19.0348 1.74446 18.9719 1.65679 18.8842C1.56912 18.7966 1.50619 18.6873 1.47438 18.5674C1.43795 18.4447 1.43572 18.3143 1.46794 18.1904C1.50015 18.0665 1.56559 17.9538 1.65719 17.8643ZM20.0369 15.5581L22.3431 17.8643V17.8502C22.4317 17.9375 22.4955 18.0466 22.5281 18.1666C22.5607 18.2865 22.5609 18.4129 22.5288 18.533C22.4966 18.653 22.4332 18.7624 22.345 18.85C22.2568 18.9376 22.147 19.0002 22.0267 19.0315L19.6572 19.7065L19.0173 22.0479C18.9855 22.1677 18.9226 22.277 18.8349 22.3647C18.7473 22.4524 18.638 22.5153 18.5181 22.5471C18.4574 22.554 18.3961 22.554 18.3353 22.5471C18.2428 22.5477 18.151 22.5299 18.0654 22.4949C17.9797 22.4599 17.9018 22.4084 17.8361 22.3432L14.8127 19.3127C16.924 18.6787 18.7628 17.3571 20.0369 15.5581ZM12.0002 8.34399L12.8228 9.57446C12.9179 9.71722 13.0618 9.82031 13.2276 9.86434C13.3933 9.90837 13.5695 9.8903 13.7228 9.81353L15.333 9.01196L14.9041 12.0002H9.09625L8.66735 9.01196L10.2775 9.81353C10.4309 9.8903 10.607 9.90837 10.7728 9.86434C10.9385 9.82031 11.0825 9.71722 11.1775 9.57446L12.0002 8.34399Z" fill="url(#paint0_linear_1983_44152)"/>
<defs>
<linearGradient id="paint0_linear_1983_44152" x1="2.00012" y1="22" x2="22.0001" y2="1.375" gradientUnits="userSpaceOnUse">
<stop stop-color="#F4DD4B"/>
<stop offset="0.234375" stop-color="#A38F0A"/>
<stop offset="0.772814" stop-color="#E3D577"/>
<stop offset="1" stop-color="#F4DD4B"/>
</linearGradient>
</defs>
</svg>
