<svg width="16" height="14" viewBox="0 0 16 14" fill="none" xmlns="http://www.w3.org/2000/svg">
<path fill-rule="evenodd" clip-rule="evenodd" d="M10.3712 7.04045C10.3712 8.34995 9.30916 9.4112 7.99966 9.4112C6.69016 9.4112 5.62891 8.34995 5.62891 7.04045C5.62891 5.7302 6.69016 4.66895 7.99966 4.66895C9.30916 4.66895 10.3712 5.7302 10.3712 7.04045Z" stroke="#EA2427" stroke-width="1.5" stroke-linecap="round" stroke-linejoin="round"/>
<path fill-rule="evenodd" clip-rule="evenodd" d="M7.9985 12.5165C10.8545 12.5165 13.4668 10.463 14.9375 7.03998C13.4668 3.61698 10.8545 1.56348 7.9985 1.56348H8.0015C5.1455 1.56348 2.53325 3.61698 1.0625 7.03998C2.53325 10.463 5.1455 12.5165 8.0015 12.5165H7.9985Z" stroke="#EA2427" stroke-width="1.5" stroke-linecap="round" stroke-linejoin="round"/>
</svg>
