<svg width="111" height="111" viewBox="0 0 111 111" fill="none" xmlns="http://www.w3.org/2000/svg">
<circle opacity="0.7" cx="55.5" cy="55.5" r="54" stroke="white" stroke-width="3"/>
<path d="M66.9599 53.5234L66.9601 53.5235C68.0842 54.2929 68.5209 55.1897 68.5207 55.9979V55.9982C68.5207 56.8027 68.0798 57.7017 66.9519 58.4749C66.9517 58.475 66.9516 58.475 66.9515 58.4751L44.7236 73.6848L44.7226 73.6855C43.8437 74.2879 43.1201 74.5 42.6644 74.5C42.2832 74.5 42.0632 74.3699 41.8959 74.1494C41.6919 73.8805 41.4805 73.3471 41.4805 72.4399V39.5652C41.4805 38.6568 41.6922 38.1222 41.897 37.8523C42.065 37.6309 42.2862 37.5 42.6695 37.5C43.1291 37.5 43.8702 37.7158 44.7411 38.3124L44.7415 38.3127L66.9599 53.5234Z" stroke="white" stroke-width="3"/>
</svg>
