<svg width="24" height="18" viewBox="0 0 24 18" fill="none" xmlns="http://www.w3.org/2000/svg">
<path fill-rule="evenodd" clip-rule="evenodd" d="M16.7757 12.9329C16.8656 14.9685 15.2227 16.6899 13.1065 16.7764C12.9506 16.7829 5.3517 16.7676 5.3517 16.7676C3.24576 16.9275 1.40263 15.4142 1.23652 13.3862C1.22401 13.2351 1.22742 5.08162 1.22742 5.08162C1.13413 3.0438 2.77474 1.31806 4.89206 1.22827C5.0502 1.22061 12.6389 1.23484 12.6389 1.23484C14.7551 1.07716 16.6039 2.60142 16.7677 4.63924C16.7791 4.78597 16.7757 12.9329 16.7757 12.9329Z" stroke="white" stroke-width="1.5" stroke-linecap="round" stroke-linejoin="round"/>
<path d="M16.7793 6.75527L20.4382 3.76082C21.3449 3.0186 22.7049 3.66527 22.7037 4.83527L22.6904 13.0008C22.6893 14.1708 21.3282 14.8119 20.4237 14.0697L16.7793 11.0753" stroke="white" stroke-width="1.5" stroke-linecap="round" stroke-linejoin="round"/>
</svg>
