<svg width="18" height="18" viewBox="0 0 18 18" fill="none" xmlns="http://www.w3.org/2000/svg">
<path fill-rule="evenodd" clip-rule="evenodd" d="M12.6118 1.29102H5.3876C2.8701 1.29102 1.29177 3.07352 1.29177 5.59602V12.4027C1.29177 14.9252 2.8626 16.7077 5.3876 16.7077H12.6109C15.1368 16.7077 16.7084 14.9252 16.7084 12.4027V5.59602C16.7084 3.07352 15.1368 1.29102 12.6118 1.29102Z" stroke="#333333" stroke-width="1.5" stroke-linecap="round" stroke-linejoin="round"/>
<path fill-rule="evenodd" clip-rule="evenodd" d="M7.9077 8.99841C7.9077 9.85091 7.21687 10.5417 6.36437 10.5417C5.51187 10.5417 4.82104 9.85091 4.82104 8.99841C4.82104 8.14591 5.51187 7.45508 6.36437 7.45508H6.36687C7.2177 7.45591 7.9077 8.14674 7.9077 8.99841Z" stroke="#333333" stroke-width="1.5" stroke-linecap="round" stroke-linejoin="round"/>
<path d="M7.9101 9H13.1751V10.5433" stroke="#333333" stroke-width="1.5" stroke-linecap="round" stroke-linejoin="round"/>
<path d="M10.8182 10.5433V9" stroke="#333333" stroke-width="1.5" stroke-linecap="round" stroke-linejoin="round"/>
</svg>
